{
  "array":[
    {
      "id": 1,
      "Name": "Nicobar",
      "State": "Andaman Nicobar"
    },
    {
      "id": 2,
      "Name": "North Middle Andaman",
      "State": "Andaman Nicobar"
    },
    {
      "id": 3,
      "Name": "South Andaman",
      "State": "Andaman Nicobar"
    },
    {
      "id": 4,
      "Name": "Anantapur",
      "State": "Andhra Pradesh"
    },
    {
      "id": 5,
      "Name": "Chittoor",
      "State": "Andhra Pradesh"
    },
    {
      "id": 6,
      "Name": "East Godavari",
      "State": "Andhra Pradesh"
    },
    {
      "id": 7,
      "Name": "Guntur",
      "State": "Andhra Pradesh"
    },
    {
      "id": 8,
      "Name": "Kadapa",
      "State": "Andhra Pradesh"
    },
    {
      "id": 9,
      "Name": "Krishna",
      "State": "Andhra Pradesh"
    },
    {
      "id": 10,
      "Name": "Kurnool",
      "State": "Andhra Pradesh"
    },
    {
      "id": 11,
      "Name": "Nellore",
      "State": "Andhra Pradesh"
    },
    {
      "id": 12,
      "Name": "Prakasam",
      "State": "Andhra Pradesh"
    },
    {
      "id": 13,
      "Name": "Srikakulam",
      "State": "Andhra Pradesh"
    },
    {
      "id": 14,
      "Name": "Visakhapatnam",
      "State": "Andhra Pradesh"
    },
    {
      "id": 15,
      "Name": "Vizianagaram",
      "State": "Andhra Pradesh"
    },
    {
      "id": 16,
      "Name": "West Godavari",
      "State": "Andhra Pradesh"
    },
    {
      "id": 17,
      "Name": "Anjaw",
      "State": "Arunachal Pradesh"
    },
    {
      "id": 18,
      "Name": "Central Siang",
      "State": "Arunachal Pradesh"
    },
    {
      "id": 19,
      "Name": "Changlang",
      "State": "Arunachal Pradesh"
    },
    {
      "id": 20,
      "Name": "Dibang Valley",
      "State": "Arunachal Pradesh"
    },
    {
      "id": 21,
      "Name": "East Kameng",
      "State": "Arunachal Pradesh"
    },
    {
      "id": 22,
      "Name": "East Siang",
      "State": "Arunachal Pradesh"
    },
    {
      "id": 23,
      "Name": "Kra Daadi",
      "State": "Arunachal Pradesh"
    },
    {
      "id": 24,
      "Name": "Kurung Kumey",
      "State": "Arunachal Pradesh"
    },
    {
      "id": 25,
      "Name": "Lohit",
      "State": "Arunachal Pradesh"
    },
    {
      "id": 26,
      "Name": "Longding",
      "State": "Arunachal Pradesh"
    },
    {
      "id": 27,
      "Name": "Lower Dibang Valley",
      "State": "Arunachal Pradesh"
    },
    {
      "id": 28,
      "Name": "Lower Siang",
      "State": "Arunachal Pradesh"
    },
    {
      "id": 29,
      "Name": "Lower Subansiri",
      "State": "Arunachal Pradesh"
    },
    {
      "id": 30,
      "Name": "Namsai",
      "State": "Arunachal Pradesh"
    },
    {
      "id": 31,
      "Name": "Papum Pare",
      "State": "Arunachal Pradesh"
    },
    {
      "id": 32,
      "Name": "Tawang",
      "State": "Arunachal Pradesh"
    },
    {
      "id": 33,
      "Name": "Tirap",
      "State": "Arunachal Pradesh"
    },
    {
      "id": 34,
      "Name": "Upper Siang",
      "State": "Arunachal Pradesh"
    },
    {
      "id": 35,
      "Name": "Upper Subansiri",
      "State": "Arunachal Pradesh"
    },
    {
      "id": 36,
      "Name": "West Kameng",
      "State": "Arunachal Pradesh"
    },
    {
      "id": 37,
      "Name": "West Siang",
      "State": "Arunachal Pradesh"
    },
    {
      "id": 38,
      "Name": "Baksa",
      "State": "Assam"
    },
    {
      "id": 39,
      "Name": "Barpeta",
      "State": "Assam"
    },
    {
      "id": 40,
      "Name": "Biswanath",
      "State": "Assam"
    },
    {
      "id": 41,
      "Name": "Bongaigaon",
      "State": "Assam"
    },
    {
      "id": 42,
      "Name": "Cachar",
      "State": "Assam"
    },
    {
      "id": 43,
      "Name": "Charaideo",
      "State": "Assam"
    },
    {
      "id": 44,
      "Name": "Chirang",
      "State": "Assam"
    },
    {
      "id": 45,
      "Name": "Darrang",
      "State": "Assam"
    },
    {
      "id": 46,
      "Name": "Dhemaji",
      "State": "Assam"
    },
    {
      "id": 47,
      "Name": "Dhubri",
      "State": "Assam"
    },
    {
      "id": 48,
      "Name": "Dibrugarh",
      "State": "Assam"
    },
    {
      "id": 49,
      "Name": "Dima Hasao",
      "State": "Assam"
    },
    {
      "id": 50,
      "Name": "Goalpara",
      "State": "Assam"
    },
    {
      "id": 51,
      "Name": "Golaghat",
      "State": "Assam"
    },
    {
      "id": 52,
      "Name": "Hailakandi",
      "State": "Assam"
    },
    {
      "id": 53,
      "Name": "Hojai",
      "State": "Assam"
    },
    {
      "id": 54,
      "Name": "Jorhat",
      "State": "Assam"
    },
    {
      "id": 55,
      "Name": "Kamrup",
      "State": "Assam"
    },
    {
      "id": 56,
      "Name": "Kamrup Metropolitan",
      "State": "Assam"
    },
    {
      "id": 57,
      "Name": "Karbi Anglong",
      "State": "Assam"
    },
    {
      "id": 58,
      "Name": "Karimganj",
      "State": "Assam"
    },
    {
      "id": 59,
      "Name": "Kokrajhar",
      "State": "Assam"
    },
    {
      "id": 60,
      "Name": "Lakhimpur",
      "State": "Assam"
    },
    {
      "id": 61,
      "Name": "Majuli",
      "State": "Assam"
    },
    {
      "id": 62,
      "Name": "Morigaon",
      "State": "Assam"
    },
    {
      "id": 63,
      "Name": "Nagaon",
      "State": "Assam"
    },
    {
      "id": 64,
      "Name": "Nalbari",
      "State": "Assam"
    },
    {
      "id": 65,
      "Name": "Sivasagar",
      "State": "Assam"
    },
    {
      "id": 66,
      "Name": "Sonitpur",
      "State": "Assam"
    },
    {
      "id": 67,
      "Name": "South Salmara-Mankachar",
      "State": "Assam"
    },
    {
      "id": 68,
      "Name": "Tinsukia",
      "State": "Assam"
    },
    {
      "id": 69,
      "Name": "Udalguri",
      "State": "Assam"
    },
    {
      "id": 70,
      "Name": "West Karbi Anglong",
      "State": "Assam"
    },
    {
      "id": 71,
      "Name": "Araria",
      "State": "Bihar"
    },
    {
      "id": 72,
      "Name": "Arwal",
      "State": "Bihar"
    },
    {
      "id": 73,
      "Name": "Aurangabad",
      "State": "Bihar"
    },
    {
      "id": 74,
      "Name": "Banka",
      "State": "Bihar"
    },
    {
      "id": 75,
      "Name": "Begusarai",
      "State": "Bihar"
    },
    {
      "id": 76,
      "Name": "Bhagalpur",
      "State": "Bihar"
    },
    {
      "id": 77,
      "Name": "Bhojpur",
      "State": "Bihar"
    },
    {
      "id": 78,
      "Name": "Buxar",
      "State": "Bihar"
    },
    {
      "id": 79,
      "Name": "Darbhanga",
      "State": "Bihar"
    },
    {
      "id": 80,
      "Name": "East Champaran",
      "State": "Bihar"
    },
    {
      "id": 81,
      "Name": "Gaya",
      "State": "Bihar"
    },
    {
      "id": 82,
      "Name": "Gopalganj",
      "State": "Bihar"
    },
    {
      "id": 83,
      "Name": "Jamui",
      "State": "Bihar"
    },
    {
      "id": 84,
      "Name": "Jehanabad",
      "State": "Bihar"
    },
    {
      "id": 85,
      "Name": "Kaimur",
      "State": "Bihar"
    },
    {
      "id": 86,
      "Name": "Katihar",
      "State": "Bihar"
    },
    {
      "id": 87,
      "Name": "Khagaria",
      "State": "Bihar"
    },
    {
      "id": 88,
      "Name": "Kishanganj",
      "State": "Bihar"
    },
    {
      "id": 89,
      "Name": "Lakhisarai",
      "State": "Bihar"
    },
    {
      "id": 90,
      "Name": "Madhepura",
      "State": "Bihar"
    },
    {
      "id": 91,
      "Name": "Madhubani",
      "State": "Bihar"
    },
    {
      "id": 92,
      "Name": "Munger",
      "State": "Bihar"
    },
    {
      "id": 93,
      "Name": "Muzaffarpur",
      "State": "Bihar"
    },
    {
      "id": 94,
      "Name": "Nalanda",
      "State": "Bihar"
    },
    {
      "id": 95,
      "Name": "Nawada",
      "State": "Bihar"
    },
    {
      "id": 96,
      "Name": "Patna",
      "State": "Bihar"
    },
    {
      "id": 97,
      "Name": "Purnia",
      "State": "Bihar"
    },
    {
      "id": 98,
      "Name": "Rohtas",
      "State": "Bihar"
    },
    {
      "id": 99,
      "Name": "Saharsa",
      "State": "Bihar"
    },
    {
      "id": 100,
      "Name": "Samastipur",
      "State": "Bihar"
    },
    {
      "id": 101,
      "Name": "Saran",
      "State": "Bihar"
    },
    {
      "id": 102,
      "Name": "Sheikhpura",
      "State": "Bihar"
    },
    {
      "id": 103,
      "Name": "Sheohar",
      "State": "Bihar"
    },
    {
      "id": 104,
      "Name": "Sitamarhi",
      "State": "Bihar"
    },
    {
      "id": 105,
      "Name": "Siwan",
      "State": "Bihar"
    },
    {
      "id": 106,
      "Name": "Supaul",
      "State": "Bihar"
    },
    {
      "id": 107,
      "Name": "Vaishali",
      "State": "Bihar"
    },
    {
      "id": 108,
      "Name": "West Champaran",
      "State": "Bihar"
    },
    {
      "id": 109,
      "Name": "Chandigarh",
      "State": "Chandigarh"
    },
    {
      "id": 110,
      "Name": "Balod",
      "State": "Chhattisgarh"
    },
    {
      "id": 111,
      "Name": "Baloda Bazar",
      "State": "Chhattisgarh"
    },
    {
      "id": 112,
      "Name": "Balrampur",
      "State": "Chhattisgarh"
    },
    {
      "id": 113,
      "Name": "Bastar",
      "State": "Chhattisgarh"
    },
    {
      "id": 114,
      "Name": "Bemetara",
      "State": "Chhattisgarh"
    },
    {
      "id": 115,
      "Name": "Bijapur",
      "State": "Chhattisgarh"
    },
    {
      "id": 116,
      "Name": "Bilaspur",
      "State": "Chhattisgarh"
    },
    {
      "id": 117,
      "Name": "Dantewada",
      "State": "Chhattisgarh"
    },
    {
      "id": 118,
      "Name": "Dhamtari",
      "State": "Chhattisgarh"
    },
    {
      "id": 119,
      "Name": "Durg",
      "State": "Chhattisgarh"
    },
    {
      "id": 120,
      "Name": "Gariaband",
      "State": "Chhattisgarh"
    },
    {
      "id": 121,
      "Name": "Janjgir Champa",
      "State": "Chhattisgarh"
    },
    {
      "id": 122,
      "Name": "Jashpur",
      "State": "Chhattisgarh"
    },
    {
      "id": 123,
      "Name": "Kabirdham",
      "State": "Chhattisgarh"
    },
    {
      "id": 124,
      "Name": "Kanker",
      "State": "Chhattisgarh"
    },
    {
      "id": 125,
      "Name": "Kondagaon",
      "State": "Chhattisgarh"
    },
    {
      "id": 126,
      "Name": "Korba",
      "State": "Chhattisgarh"
    },
    {
      "id": 127,
      "Name": "Koriya",
      "State": "Chhattisgarh"
    },
    {
      "id": 128,
      "Name": "Mahasamund",
      "State": "Chhattisgarh"
    },
    {
      "id": 129,
      "Name": "Mungeli",
      "State": "Chhattisgarh"
    },
    {
      "id": 130,
      "Name": "Narayanpur",
      "State": "Chhattisgarh"
    },
    {
      "id": 131,
      "Name": "Raigarh",
      "State": "Chhattisgarh"
    },
    {
      "id": 132,
      "Name": "Raipur",
      "State": "Chhattisgarh"
    },
    {
      "id": 133,
      "Name": "Rajnandgaon",
      "State": "Chhattisgarh"
    },
    {
      "id": 134,
      "Name": "Sukma",
      "State": "Chhattisgarh"
    },
    {
      "id": 135,
      "Name": "Surajpur",
      "State": "Chhattisgarh"
    },
    {
      "id": 136,
      "Name": "Surguja",
      "State": "Chhattisgarh"
    },
    {
      "id": 137,
      "Name": "Dadra Nagar Haveli",
      "State": "Dadra Nagar Haveli"
    },
    {
      "id": 138,
      "Name": "Daman",
      "State": "Daman Diu"
    },
    {
      "id": 139,
      "Name": "Diu",
      "State": "Daman Diu"
    },
    {
      "id": 140,
      "Name": "Central Delhi",
      "State": "Delhi"
    },
    {
      "id": 141,
      "Name": "East Delhi",
      "State": "Delhi"
    },
    {
      "id": 142,
      "Name": "New Delhi",
      "State": "Delhi"
    },
    {
      "id": 143,
      "Name": "North Delhi",
      "State": "Delhi"
    },
    {
      "id": 144,
      "Name": "North East Delhi",
      "State": "Delhi"
    },
    {
      "id": 145,
      "Name": "North West Delhi",
      "State": "Delhi"
    },
    {
      "id": 146,
      "Name": "Shahdara",
      "State": "Delhi"
    },
    {
      "id": 147,
      "Name": "South Delhi",
      "State": "Delhi"
    },
    {
      "id": 148,
      "Name": "South East Delhi",
      "State": "Delhi"
    },
    {
      "id": 149,
      "Name": "South West Delhi",
      "State": "Delhi"
    },
    {
      "id": 150,
      "Name": "West Delhi",
      "State": "Delhi"
    },
    {
      "id": 151,
      "Name": "North Goa",
      "State": "Goa"
    },
    {
      "id": 152,
      "Name": "South Goa",
      "State": "Goa"
    },
    {
      "id": 153,
      "Name": "Ahmedabad",
      "State": "Gujarat"
    },
    {
      "id": 154,
      "Name": "Amreli",
      "State": "Gujarat"
    },
    {
      "id": 155,
      "Name": "Anand",
      "State": "Gujarat"
    },
    {
      "id": 156,
      "Name": "Aravalli",
      "State": "Gujarat"
    },
    {
      "id": 157,
      "Name": "Banaskantha",
      "State": "Gujarat"
    },
    {
      "id": 158,
      "Name": "Bharuch",
      "State": "Gujarat"
    },
    {
      "id": 159,
      "Name": "Bhavnagar",
      "State": "Gujarat"
    },
    {
      "id": 160,
      "Name": "Botad",
      "State": "Gujarat"
    },
    {
      "id": 161,
      "Name": "Chhota Udaipur",
      "State": "Gujarat"
    },
    {
      "id": 162,
      "Name": "Dahod",
      "State": "Gujarat"
    },
    {
      "id": 163,
      "Name": "Dang",
      "State": "Gujarat"
    },
    {
      "id": 164,
      "Name": "Devbhoomi Dwarka",
      "State": "Gujarat"
    },
    {
      "id": 165,
      "Name": "Gandhinagar",
      "State": "Gujarat"
    },
    {
      "id": 166,
      "Name": "Gir Somnath",
      "State": "Gujarat"
    },
    {
      "id": 167,
      "Name": "Jamnagar",
      "State": "Gujarat"
    },
    {
      "id": 168,
      "Name": "Junagadh",
      "State": "Gujarat"
    },
    {
      "id": 169,
      "Name": "Kheda",
      "State": "Gujarat"
    },
    {
      "id": 170,
      "Name": "Kutch",
      "State": "Gujarat"
    },
    {
      "id": 171,
      "Name": "Mahisagar",
      "State": "Gujarat"
    },
    {
      "id": 172,
      "Name": "Mehsana",
      "State": "Gujarat"
    },
    {
      "id": 173,
      "Name": "Morbi",
      "State": "Gujarat"
    },
    {
      "id": 174,
      "Name": "Narmada",
      "State": "Gujarat"
    },
    {
      "id": 175,
      "Name": "Navsari",
      "State": "Gujarat"
    },
    {
      "id": 176,
      "Name": "Panchmahal",
      "State": "Gujarat"
    },
    {
      "id": 177,
      "Name": "Patan",
      "State": "Gujarat"
    },
    {
      "id": 178,
      "Name": "Porbandar",
      "State": "Gujarat"
    },
    {
      "id": 179,
      "Name": "Rajkot",
      "State": "Gujarat"
    },
    {
      "id": 180,
      "Name": "Sabarkantha",
      "State": "Gujarat"
    },
    {
      "id": 181,
      "Name": "Surat",
      "State": "Gujarat"
    },
    {
      "id": 182,
      "Name": "Surendranagar",
      "State": "Gujarat"
    },
    {
      "id": 183,
      "Name": "Tapi",
      "State": "Gujarat"
    },
    {
      "id": 184,
      "Name": "Vadodara",
      "State": "Gujarat"
    },
    {
      "id": 185,
      "Name": "Valsad",
      "State": "Gujarat"
    },
    {
      "id": 186,
      "Name": "Ambala",
      "State": "Haryana"
    },
    {
      "id": 187,
      "Name": "Bhiwani",
      "State": "Haryana"
    },
    {
      "id": 188,
      "Name": "Charkhi Dadri",
      "State": "Haryana"
    },
    {
      "id": 189,
      "Name": "Faridabad",
      "State": "Haryana"
    },
    {
      "id": 190,
      "Name": "Fatehabad",
      "State": "Haryana"
    },
    {
      "id": 191,
      "Name": "Gurugram*",
      "State": "Haryana"
    },
    {
      "id": 192,
      "Name": "Hisar",
      "State": "Haryana"
    },
    {
      "id": 193,
      "Name": "Jhajjar",
      "State": "Haryana"
    },
    {
      "id": 194,
      "Name": "Jind",
      "State": "Haryana"
    },
    {
      "id": 195,
      "Name": "Kaithal",
      "State": "Haryana"
    },
    {
      "id": 196,
      "Name": "Karnal",
      "State": "Haryana"
    },
    {
      "id": 197,
      "Name": "Kurukshetra",
      "State": "Haryana"
    },
    {
      "id": 198,
      "Name": "Mahendragarh",
      "State": "Haryana"
    },
    {
      "id": 199,
      "Name": "Mewat",
      "State": "Haryana"
    },
    {
      "id": 200,
      "Name": "Palwal",
      "State": "Haryana"
    },
    {
      "id": 201,
      "Name": "Panchkula",
      "State": "Haryana"
    },
    {
      "id": 202,
      "Name": "Panipat",
      "State": "Haryana"
    },
    {
      "id": 203,
      "Name": "Rewari",
      "State": "Haryana"
    },
    {
      "id": 204,
      "Name": "Rohtak",
      "State": "Haryana"
    },
    {
      "id": 205,
      "Name": "Sirsa",
      "State": "Haryana"
    },
    {
      "id": 206,
      "Name": "Sonipat",
      "State": "Haryana"
    },
    {
      "id": 207,
      "Name": "Yamunanagar",
      "State": "Haryana"
    },
    {
      "id": 208,
      "Name": "Bilaspur",
      "State": "Himachal Pradesh"
    },
    {
      "id": 209,
      "Name": "Chamba",
      "State": "Himachal Pradesh"
    },
    {
      "id": 210,
      "Name": "Hamirpur",
      "State": "Himachal Pradesh"
    },
    {
      "id": 211,
      "Name": "Kangra",
      "State": "Himachal Pradesh"
    },
    {
      "id": 212,
      "Name": "Kinnaur",
      "State": "Himachal Pradesh"
    },
    {
      "id": 213,
      "Name": "Kullu",
      "State": "Himachal Pradesh"
    },
    {
      "id": 214,
      "Name": "Lahaul Spiti",
      "State": "Himachal Pradesh"
    },
    {
      "id": 215,
      "Name": "Mandi",
      "State": "Himachal Pradesh"
    },
    {
      "id": 216,
      "Name": "Shimla",
      "State": "Himachal Pradesh"
    },
    {
      "id": 217,
      "Name": "Sirmaur",
      "State": "Himachal Pradesh"
    },
    {
      "id": 218,
      "Name": "Solan",
      "State": "Himachal Pradesh"
    },
    {
      "id": 219,
      "Name": "Una",
      "State": "Himachal Pradesh"
    },
    {
      "id": 220,
      "Name": "Anantnag",
      "State": "Jammu Kashmir"
    },
    {
      "id": 221,
      "Name": "Bandipora",
      "State": "Jammu Kashmir"
    },
    {
      "id": 222,
      "Name": "Baramulla",
      "State": "Jammu Kashmir"
    },
    {
      "id": 223,
      "Name": "Budgam",
      "State": "Jammu Kashmir"
    },
    {
      "id": 224,
      "Name": "Doda",
      "State": "Jammu Kashmir"
    },
    {
      "id": 225,
      "Name": "Ganderbal",
      "State": "Jammu Kashmir"
    },
    {
      "id": 226,
      "Name": "Jammu",
      "State": "Jammu Kashmir"
    },
    {
      "id": 227,
      "Name": "Kargil",
      "State": "Jammu Kashmir"
    },
    {
      "id": 228,
      "Name": "Kathua",
      "State": "Jammu Kashmir"
    },
    {
      "id": 229,
      "Name": "Kishtwar",
      "State": "Jammu Kashmir"
    },
    {
      "id": 230,
      "Name": "Kulgam",
      "State": "Jammu Kashmir"
    },
    {
      "id": 231,
      "Name": "Kupwara",
      "State": "Jammu Kashmir"
    },
    {
      "id": 232,
      "Name": "Leh",
      "State": "Jammu Kashmir"
    },
    {
      "id": 233,
      "Name": "Poonch",
      "State": "Jammu Kashmir"
    },
    {
      "id": 234,
      "Name": "Pulwama",
      "State": "Jammu Kashmir"
    },
    {
      "id": 235,
      "Name": "Rajouri",
      "State": "Jammu Kashmir"
    },
    {
      "id": 236,
      "Name": "Ramban",
      "State": "Jammu Kashmir"
    },
    {
      "id": 237,
      "Name": "Reasi",
      "State": "Jammu Kashmir"
    },
    {
      "id": 238,
      "Name": "Samba",
      "State": "Jammu Kashmir"
    },
    {
      "id": 239,
      "Name": "Shopian",
      "State": "Jammu Kashmir"
    },
    {
      "id": 240,
      "Name": "Srinagar",
      "State": "Jammu Kashmir"
    },
    {
      "id": 241,
      "Name": "Udhampur",
      "State": "Jammu Kashmir"
    },
    {
      "id": 242,
      "Name": "Bokaro",
      "State": "Jharkhand"
    },
    {
      "id": 243,
      "Name": "Chatra",
      "State": "Jharkhand"
    },
    {
      "id": 244,
      "Name": "Deoghar",
      "State": "Jharkhand"
    },
    {
      "id": 245,
      "Name": "Dhanbad",
      "State": "Jharkhand"
    },
    {
      "id": 246,
      "Name": "Dumka",
      "State": "Jharkhand"
    },
    {
      "id": 247,
      "Name": "East Singhbhum",
      "State": "Jharkhand"
    },
    {
      "id": 248,
      "Name": "Garhwa",
      "State": "Jharkhand"
    },
    {
      "id": 249,
      "Name": "Giridih",
      "State": "Jharkhand"
    },
    {
      "id": 250,
      "Name": "Godda",
      "State": "Jharkhand"
    },
    {
      "id": 251,
      "Name": "Gumla",
      "State": "Jharkhand"
    },
    {
      "id": 252,
      "Name": "Hazaribagh",
      "State": "Jharkhand"
    },
    {
      "id": 253,
      "Name": "Jamtara",
      "State": "Jharkhand"
    },
    {
      "id": 254,
      "Name": "Khunti",
      "State": "Jharkhand"
    },
    {
      "id": 255,
      "Name": "Koderma",
      "State": "Jharkhand"
    },
    {
      "id": 256,
      "Name": "Latehar",
      "State": "Jharkhand"
    },
    {
      "id": 257,
      "Name": "Lohardaga",
      "State": "Jharkhand"
    },
    {
      "id": 258,
      "Name": "Pakur",
      "State": "Jharkhand"
    },
    {
      "id": 259,
      "Name": "Palamu",
      "State": "Jharkhand"
    },
    {
      "id": 260,
      "Name": "Ramgarh",
      "State": "Jharkhand"
    },
    {
      "id": 261,
      "Name": "Ranchi",
      "State": "Jharkhand"
    },
    {
      "id": 262,
      "Name": "Sahebganj",
      "State": "Jharkhand"
    },
    {
      "id": 263,
      "Name": "Seraikela Kharsawan",
      "State": "Jharkhand"
    },
    {
      "id": 264,
      "Name": "Simdega",
      "State": "Jharkhand"
    },
    {
      "id": 265,
      "Name": "West Singhbhum",
      "State": "Jharkhand"
    },
    {
      "id": 266,
      "Name": "Bagalkot",
      "State": "Karnataka"
    },
    {
      "id": 267,
      "Name": "Bangalore Rural",
      "State": "Karnataka"
    },
    {
      "id": 268,
      "Name": "Bangalore Urban",
      "State": "Karnataka"
    },
    {
      "id": 269,
      "Name": "Belgaum",
      "State": "Karnataka"
    },
    {
      "id": 270,
      "Name": "Bellary",
      "State": "Karnataka"
    },
    {
      "id": 271,
      "Name": "Bidar",
      "State": "Karnataka"
    },
    {
      "id": 272,
      "Name": "Bijapur",
      "State": "Karnataka"
    },
    {
      "id": 273,
      "Name": "Chamarajanagar",
      "State": "Karnataka"
    },
    {
      "id": 274,
      "Name": "Chikkaballapur",
      "State": "Karnataka"
    },
    {
      "id": 275,
      "Name": "Chikkamagaluru",
      "State": "Karnataka"
    },
    {
      "id": 276,
      "Name": "Chitradurga",
      "State": "Karnataka"
    },
    {
      "id": 277,
      "Name": "Dakshina Kannada",
      "State": "Karnataka"
    },
    {
      "id": 278,
      "Name": "Davanagere",
      "State": "Karnataka"
    },
    {
      "id": 279,
      "Name": "Dharwad",
      "State": "Karnataka"
    },
    {
      "id": 280,
      "Name": "Gadag",
      "State": "Karnataka"
    },
    {
      "id": 281,
      "Name": "Gulbarga",
      "State": "Karnataka"
    },
    {
      "id": 282,
      "Name": "Hassan",
      "State": "Karnataka"
    },
    {
      "id": 283,
      "Name": "Haveri",
      "State": "Karnataka"
    },
    {
      "id": 284,
      "Name": "Kodagu",
      "State": "Karnataka"
    },
    {
      "id": 285,
      "Name": "Kolar",
      "State": "Karnataka"
    },
    {
      "id": 286,
      "Name": "Koppal",
      "State": "Karnataka"
    },
    {
      "id": 287,
      "Name": "Mandya",
      "State": "Karnataka"
    },
    {
      "id": 288,
      "Name": "Mysore",
      "State": "Karnataka"
    },
    {
      "id": 289,
      "Name": "Raichur",
      "State": "Karnataka"
    },
    {
      "id": 290,
      "Name": "Ramanagara",
      "State": "Karnataka"
    },
    {
      "id": 291,
      "Name": "Shimoga",
      "State": "Karnataka"
    },
    {
      "id": 292,
      "Name": "Tumkur",
      "State": "Karnataka"
    },
    {
      "id": 293,
      "Name": "Udupi",
      "State": "Karnataka"
    },
    {
      "id": 294,
      "Name": "Uttara Kannada",
      "State": "Karnataka"
    },
    {
      "id": 295,
      "Name": "Yadgir",
      "State": "Karnataka"
    },
    {
      "id": 296,
      "Name": "Alappuzha",
      "State": "Kerala"
    },
    {
      "id": 297,
      "Name": "Ernakulam",
      "State": "Kerala"
    },
    {
      "id": 298,
      "Name": "Idukki",
      "State": "Kerala"
    },
    {
      "id": 299,
      "Name": "Kannur",
      "State": "Kerala"
    },
    {
      "id": 300,
      "Name": "Kasaragod",
      "State": "Kerala"
    },
    {
      "id": 301,
      "Name": "Kollam",
      "State": "Kerala"
    },
    {
      "id": 302,
      "Name": "Kottayam",
      "State": "Kerala"
    },
    {
      "id": 303,
      "Name": "Kozhikode",
      "State": "Kerala"
    },
    {
      "id": 304,
      "Name": "Malappuram",
      "State": "Kerala"
    },
    {
      "id": 305,
      "Name": "Palakkad",
      "State": "Kerala"
    },
    {
      "id": 306,
      "Name": "Pathanamthitta",
      "State": "Kerala"
    },
    {
      "id": 307,
      "Name": "Thiruvananthapuram",
      "State": "Kerala"
    },
    {
      "id": 308,
      "Name": "Thrissur",
      "State": "Kerala"
    },
    {
      "id": 309,
      "Name": "Wayanad",
      "State": "Kerala"
    },
    {
      "id": 310,
      "Name": "Lakshadweep",
      "State": "Lakshadweep"
    },
    {
      "id": 311,
      "Name": "Agar Malwa",
      "State": "Madhya Pradesh"
    },
    {
      "id": 312,
      "Name": "Alirajpur",
      "State": "Madhya Pradesh"
    },
    {
      "id": 313,
      "Name": "Anuppur",
      "State": "Madhya Pradesh"
    },
    {
      "id": 314,
      "Name": "Ashoknagar",
      "State": "Madhya Pradesh"
    },
    {
      "id": 315,
      "Name": "Balaghat",
      "State": "Madhya Pradesh"
    },
    {
      "id": 316,
      "Name": "Barwani",
      "State": "Madhya Pradesh"
    },
    {
      "id": 317,
      "Name": "Betul",
      "State": "Madhya Pradesh"
    },
    {
      "id": 318,
      "Name": "Bhind",
      "State": "Madhya Pradesh"
    },
    {
      "id": 319,
      "Name": "Bhopal",
      "State": "Madhya Pradesh"
    },
    {
      "id": 320,
      "Name": "Burhanpur",
      "State": "Madhya Pradesh"
    },
    {
      "id": 321,
      "Name": "Chhatarpur",
      "State": "Madhya Pradesh"
    },
    {
      "id": 322,
      "Name": "Chhindwara",
      "State": "Madhya Pradesh"
    },
    {
      "id": 323,
      "Name": "Damoh",
      "State": "Madhya Pradesh"
    },
    {
      "id": 324,
      "Name": "Datia",
      "State": "Madhya Pradesh"
    },
    {
      "id": 325,
      "Name": "Dewas",
      "State": "Madhya Pradesh"
    },
    {
      "id": 326,
      "Name": "Dhar",
      "State": "Madhya Pradesh"
    },
    {
      "id": 327,
      "Name": "Dindori",
      "State": "Madhya Pradesh"
    },
    {
      "id": 328,
      "Name": "Guna",
      "State": "Madhya Pradesh"
    },
    {
      "id": 329,
      "Name": "Gwalior",
      "State": "Madhya Pradesh"
    },
    {
      "id": 330,
      "Name": "Harda",
      "State": "Madhya Pradesh"
    },
    {
      "id": 331,
      "Name": "Hoshangabad",
      "State": "Madhya Pradesh"
    },
    {
      "id": 332,
      "Name": "Indore",
      "State": "Madhya Pradesh"
    },
    {
      "id": 333,
      "Name": "Jabalpur",
      "State": "Madhya Pradesh"
    },
    {
      "id": 334,
      "Name": "Jhabua",
      "State": "Madhya Pradesh"
    },
    {
      "id": 335,
      "Name": "Katni",
      "State": "Madhya Pradesh"
    },
    {
      "id": 336,
      "Name": "Khandwa",
      "State": "Madhya Pradesh"
    },
    {
      "id": 337,
      "Name": "Khargone",
      "State": "Madhya Pradesh"
    },
    {
      "id": 338,
      "Name": "Mandla",
      "State": "Madhya Pradesh"
    },
    {
      "id": 339,
      "Name": "Mandsaur",
      "State": "Madhya Pradesh"
    },
    {
      "id": 340,
      "Name": "Morena",
      "State": "Madhya Pradesh"
    },
    {
      "id": 341,
      "Name": "Narsinghpur",
      "State": "Madhya Pradesh"
    },
    {
      "id": 342,
      "Name": "Neemuch",
      "State": "Madhya Pradesh"
    },
    {
      "id": 343,
      "Name": "Panna",
      "State": "Madhya Pradesh"
    },
    {
      "id": 344,
      "Name": "Raisen",
      "State": "Madhya Pradesh"
    },
    {
      "id": 345,
      "Name": "Rajgarh",
      "State": "Madhya Pradesh"
    },
    {
      "id": 346,
      "Name": "Ratlam",
      "State": "Madhya Pradesh"
    },
    {
      "id": 347,
      "Name": "Rewa",
      "State": "Madhya Pradesh"
    },
    {
      "id": 348,
      "Name": "Sagar",
      "State": "Madhya Pradesh"
    },
    {
      "id": 349,
      "Name": "Satna",
      "State": "Madhya Pradesh"
    },
    {
      "id": 350,
      "Name": "Sehore",
      "State": "Madhya Pradesh"
    },
    {
      "id": 351,
      "Name": "Seoni",
      "State": "Madhya Pradesh"
    },
    {
      "id": 352,
      "Name": "Shahdol",
      "State": "Madhya Pradesh"
    },
    {
      "id": 353,
      "Name": "Shajapur",
      "State": "Madhya Pradesh"
    },
    {
      "id": 354,
      "Name": "Sheopur",
      "State": "Madhya Pradesh"
    },
    {
      "id": 355,
      "Name": "Shivpuri",
      "State": "Madhya Pradesh"
    },
    {
      "id": 356,
      "Name": "Sidhi",
      "State": "Madhya Pradesh"
    },
    {
      "id": 357,
      "Name": "Singrauli",
      "State": "Madhya Pradesh"
    },
    {
      "id": 358,
      "Name": "Tikamgarh",
      "State": "Madhya Pradesh"
    },
    {
      "id": 359,
      "Name": "Ujjain",
      "State": "Madhya Pradesh"
    },
    {
      "id": 360,
      "Name": "Umaria",
      "State": "Madhya Pradesh"
    },
    {
      "id": 361,
      "Name": "Vidisha",
      "State": "Madhya Pradesh"
    },
    {
      "id": 362,
      "Name": "Ahmednagar",
      "State": "Maharashtra"
    },
    {
      "id": 363,
      "Name": "Akola",
      "State": "Maharashtra"
    },
    {
      "id": 364,
      "Name": "Amravati",
      "State": "Maharashtra"
    },
    {
      "id": 365,
      "Name": "Aurangabad",
      "State": "Maharashtra"
    },
    {
      "id": 366,
      "Name": "Beed",
      "State": "Maharashtra"
    },
    {
      "id": 367,
      "Name": "Bhandara",
      "State": "Maharashtra"
    },
    {
      "id": 368,
      "Name": "Buldhana",
      "State": "Maharashtra"
    },
    {
      "id": 369,
      "Name": "Chandrapur",
      "State": "Maharashtra"
    },
    {
      "id": 370,
      "Name": "Dhule",
      "State": "Maharashtra"
    },
    {
      "id": 371,
      "Name": "Gadchiroli",
      "State": "Maharashtra"
    },
    {
      "id": 372,
      "Name": "Gondia",
      "State": "Maharashtra"
    },
    {
      "id": 373,
      "Name": "Hingoli",
      "State": "Maharashtra"
    },
    {
      "id": 374,
      "Name": "Jalgaon",
      "State": "Maharashtra"
    },
    {
      "id": 375,
      "Name": "Jalna",
      "State": "Maharashtra"
    },
    {
      "id": 376,
      "Name": "Kolhapur",
      "State": "Maharashtra"
    },
    {
      "id": 377,
      "Name": "Latur",
      "State": "Maharashtra"
    },
    {
      "id": 378,
      "Name": "Mumbai City",
      "State": "Maharashtra"
    },
    {
      "id": 379,
      "Name": "Mumbai Suburban",
      "State": "Maharashtra"
    },
    {
      "id": 380,
      "Name": "Nagpur",
      "State": "Maharashtra"
    },
    {
      "id": 381,
      "Name": "Nanded",
      "State": "Maharashtra"
    },
    {
      "id": 382,
      "Name": "Nandurbar",
      "State": "Maharashtra"
    },
    {
      "id": 383,
      "Name": "Nashik",
      "State": "Maharashtra"
    },
    {
      "id": 384,
      "Name": "Osmanabad",
      "State": "Maharashtra"
    },
    {
      "id": 385,
      "Name": "Palghar",
      "State": "Maharashtra"
    },
    {
      "id": 386,
      "Name": "Parbhani",
      "State": "Maharashtra"
    },
    {
      "id": 387,
      "Name": "Pune",
      "State": "Maharashtra"
    },
    {
      "id": 388,
      "Name": "Raigad",
      "State": "Maharashtra"
    },
    {
      "id": 389,
      "Name": "Ratnagiri",
      "State": "Maharashtra"
    },
    {
      "id": 390,
      "Name": "Sangli",
      "State": "Maharashtra"
    },
    {
      "id": 391,
      "Name": "Satara",
      "State": "Maharashtra"
    },
    {
      "id": 392,
      "Name": "Sindhudurg",
      "State": "Maharashtra"
    },
    {
      "id": 393,
      "Name": "Solapur",
      "State": "Maharashtra"
    },
    {
      "id": 394,
      "Name": "Thane",
      "State": "Maharashtra"
    },
    {
      "id": 395,
      "Name": "Wardha",
      "State": "Maharashtra"
    },
    {
      "id": 396,
      "Name": "Washim",
      "State": "Maharashtra"
    },
    {
      "id": 397,
      "Name": "Yavatmal",
      "State": "Maharashtra"
    },
    {
      "id": 398,
      "Name": "Bishnupur",
      "State": "Manipur"
    },
    {
      "id": 399,
      "Name": "Chandel",
      "State": "Manipur"
    },
    {
      "id": 400,
      "Name": "Churachandpur",
      "State": "Manipur"
    },
    {
      "id": 401,
      "Name": "Imphal East",
      "State": "Manipur"
    },
    {
      "id": 402,
      "Name": "Imphal West",
      "State": "Manipur"
    },
    {
      "id": 403,
      "Name": "Jiribam",
      "State": "Manipur"
    },
    {
      "id": 404,
      "Name": "Kakching",
      "State": "Manipur"
    },
    {
      "id": 405,
      "Name": "Kamjong",
      "State": "Manipur"
    },
    {
      "id": 406,
      "Name": "Kangpokpi",
      "State": "Manipur"
    },
    {
      "id": 407,
      "Name": "Noney",
      "State": "Manipur"
    },
    {
      "id": 408,
      "Name": "Pherzawl",
      "State": "Manipur"
    },
    {
      "id": 409,
      "Name": "Senapati",
      "State": "Manipur"
    },
    {
      "id": 410,
      "Name": "Tamenglong",
      "State": "Manipur"
    },
    {
      "id": 411,
      "Name": "Tengnoupal",
      "State": "Manipur"
    },
    {
      "id": 412,
      "Name": "Thoubal",
      "State": "Manipur"
    },
    {
      "id": 413,
      "Name": "Ukhrul",
      "State": "Manipur"
    },
    {
      "id": 414,
      "Name": "East Garo Hills",
      "State": "Meghalaya"
    },
    {
      "id": 415,
      "Name": "East Jaintia Hills",
      "State": "Meghalaya"
    },
    {
      "id": 416,
      "Name": "East Khasi Hills",
      "State": "Meghalaya"
    },
    {
      "id": 417,
      "Name": "North Garo Hills",
      "State": "Meghalaya"
    },
    {
      "id": 418,
      "Name": "Ri Bhoi",
      "State": "Meghalaya"
    },
    {
      "id": 419,
      "Name": "South Garo Hills",
      "State": "Meghalaya"
    },
    {
      "id": 420,
      "Name": "South West Garo Hills",
      "State": "Meghalaya"
    },
    {
      "id": 421,
      "Name": "South West Khasi Hills",
      "State": "Meghalaya"
    },
    {
      "id": 422,
      "Name": "West Garo Hills",
      "State": "Meghalaya"
    },
    {
      "id": 423,
      "Name": "West Jaintia Hills",
      "State": "Meghalaya"
    },
    {
      "id": 424,
      "Name": "West Khasi Hills",
      "State": "Meghalaya"
    },
    {
      "id": 425,
      "Name": "Aizawl",
      "State": "Mizoram"
    },
    {
      "id": 426,
      "Name": "Champhai",
      "State": "Mizoram"
    },
    {
      "id": 427,
      "Name": "Kolasib",
      "State": "Mizoram"
    },
    {
      "id": 428,
      "Name": "Lawngtlai",
      "State": "Mizoram"
    },
    {
      "id": 429,
      "Name": "Lunglei",
      "State": "Mizoram"
    },
    {
      "id": 430,
      "Name": "Mamit",
      "State": "Mizoram"
    },
    {
      "id": 431,
      "Name": "Saiha",
      "State": "Mizoram"
    },
    {
      "id": 432,
      "Name": "Serchhip",
      "State": "Mizoram"
    },
    {
      "id": 433,
      "Name": "Dimapur",
      "State": "Nagaland"
    },
    {
      "id": 434,
      "Name": "Kiphire",
      "State": "Nagaland"
    },
    {
      "id": 435,
      "Name": "Kohima",
      "State": "Nagaland"
    },
    {
      "id": 436,
      "Name": "Longleng",
      "State": "Nagaland"
    },
    {
      "id": 437,
      "Name": "Mokokchung",
      "State": "Nagaland"
    },
    {
      "id": 438,
      "Name": "Mon",
      "State": "Nagaland"
    },
    {
      "id": 439,
      "Name": "Peren",
      "State": "Nagaland"
    },
    {
      "id": 440,
      "Name": "Phek",
      "State": "Nagaland"
    },
    {
      "id": 441,
      "Name": "Tuensang",
      "State": "Nagaland"
    },
    {
      "id": 442,
      "Name": "Wokha",
      "State": "Nagaland"
    },
    {
      "id": 443,
      "Name": "Zunheboto",
      "State": "Nagaland"
    },
    {
      "id": 444,
      "Name": "Angul",
      "State": "Odisha"
    },
    {
      "id": 445,
      "Name": "Balangir",
      "State": "Odisha"
    },
    {
      "id": 446,
      "Name": "Balasore",
      "State": "Odisha"
    },
    {
      "id": 447,
      "Name": "Bargarh",
      "State": "Odisha"
    },
    {
      "id": 448,
      "Name": "Bhadrak",
      "State": "Odisha"
    },
    {
      "id": 449,
      "Name": "Boudh",
      "State": "Odisha"
    },
    {
      "id": 450,
      "Name": "Cuttack",
      "State": "Odisha"
    },
    {
      "id": 451,
      "Name": "Debagarh",
      "State": "Odisha"
    },
    {
      "id": 452,
      "Name": "Dhenkanal",
      "State": "Odisha"
    },
    {
      "id": 453,
      "Name": "Gajapati",
      "State": "Odisha"
    },
    {
      "id": 454,
      "Name": "Ganjam",
      "State": "Odisha"
    },
    {
      "id": 455,
      "Name": "Jagatsinghpur",
      "State": "Odisha"
    },
    {
      "id": 456,
      "Name": "Jajpur",
      "State": "Odisha"
    },
    {
      "id": 457,
      "Name": "Jharsuguda",
      "State": "Odisha"
    },
    {
      "id": 458,
      "Name": "Kalahandi",
      "State": "Odisha"
    },
    {
      "id": 459,
      "Name": "Kandhamal",
      "State": "Odisha"
    },
    {
      "id": 460,
      "Name": "Kendrapara",
      "State": "Odisha"
    },
    {
      "id": 461,
      "Name": "Kendujhar",
      "State": "Odisha"
    },
    {
      "id": 462,
      "Name": "Khordha",
      "State": "Odisha"
    },
    {
      "id": 463,
      "Name": "Koraput",
      "State": "Odisha"
    },
    {
      "id": 464,
      "Name": "Malkangiri",
      "State": "Odisha"
    },
    {
      "id": 465,
      "Name": "Mayurbhanj",
      "State": "Odisha"
    },
    {
      "id": 466,
      "Name": "Nabarangpur",
      "State": "Odisha"
    },
    {
      "id": 467,
      "Name": "Nayagarh",
      "State": "Odisha"
    },
    {
      "id": 468,
      "Name": "Nuapada",
      "State": "Odisha"
    },
    {
      "id": 469,
      "Name": "Puri",
      "State": "Odisha"
    },
    {
      "id": 470,
      "Name": "Rayagada",
      "State": "Odisha"
    },
    {
      "id": 471,
      "Name": "Sambalpur",
      "State": "Odisha"
    },
    {
      "id": 472,
      "Name": "Subarnapur",
      "State": "Odisha"
    },
    {
      "id": 473,
      "Name": "Sundergarh",
      "State": "Odisha"
    },
    {
      "id": 474,
      "Name": "Karaikal",
      "State": "Puducherry"
    },
    {
      "id": 475,
      "Name": "Mahe",
      "State": "Puducherry"
    },
    {
      "id": 476,
      "Name": "Puducherry",
      "State": "Puducherry"
    },
    {
      "id": 477,
      "Name": "Yanam",
      "State": "Puducherry"
    },
    {
      "id": 478,
      "Name": "Amritsar",
      "State": "Punjab"
    },
    {
      "id": 479,
      "Name": "Barnala",
      "State": "Punjab"
    },
    {
      "id": 480,
      "Name": "Bathinda",
      "State": "Punjab"
    },
    {
      "id": 481,
      "Name": "Faridkot",
      "State": "Punjab"
    },
    {
      "id": 482,
      "Name": "Fatehgarh Sahib",
      "State": "Punjab"
    },
    {
      "id": 483,
      "Name": "Fazilka",
      "State": "Punjab"
    },
    {
      "id": 484,
      "Name": "Firozpur",
      "State": "Punjab"
    },
    {
      "id": 485,
      "Name": "Gurdaspur",
      "State": "Punjab"
    },
    {
      "id": 486,
      "Name": "Hoshiarpur",
      "State": "Punjab"
    },
    {
      "id": 487,
      "Name": "Jalandhar",
      "State": "Punjab"
    },
    {
      "id": 488,
      "Name": "Kapurthala",
      "State": "Punjab"
    },
    {
      "id": 489,
      "Name": "Ludhiana",
      "State": "Punjab"
    },
    {
      "id": 490,
      "Name": "Mansa",
      "State": "Punjab"
    },
    {
      "id": 491,
      "Name": "Moga",
      "State": "Punjab"
    },
    {
      "id": 492,
      "Name": "Mohali",
      "State": "Punjab"
    },
    {
      "id": 493,
      "Name": "Muktsar",
      "State": "Punjab"
    },
    {
      "id": 494,
      "Name": "Pathankot",
      "State": "Punjab"
    },
    {
      "id": 495,
      "Name": "Patiala",
      "State": "Punjab"
    },
    {
      "id": 496,
      "Name": "Rupnagar",
      "State": "Punjab"
    },
    {
      "id": 497,
      "Name": "Sangrur",
      "State": "Punjab"
    },
    {
      "id": 498,
      "Name": "Shaheed Bhagat Singh Nagar",
      "State": "Punjab"
    },
    {
      "id": 499,
      "Name": "Tarn Taran",
      "State": "Punjab"
    },
    {
      "id": 500,
      "Name": "Ajmer",
      "State": "Rajasthan"
    },
    {
      "id": 501,
      "Name": "Alwar",
      "State": "Rajasthan"
    },
    {
      "id": 502,
      "Name": "Banswara",
      "State": "Rajasthan"
    },
    {
      "id": 503,
      "Name": "Baran",
      "State": "Rajasthan"
    },
    {
      "id": 504,
      "Name": "Barmer",
      "State": "Rajasthan"
    },
    {
      "id": 505,
      "Name": "Bharatpur",
      "State": "Rajasthan"
    },
    {
      "id": 506,
      "Name": "Bhilwara",
      "State": "Rajasthan"
    },
    {
      "id": 507,
      "Name": "Bikaner",
      "State": "Rajasthan"
    },
    {
      "id": 508,
      "Name": "Bundi",
      "State": "Rajasthan"
    },
    {
      "id": 509,
      "Name": "Chittorgarh",
      "State": "Rajasthan"
    },
    {
      "id": 510,
      "Name": "Churu",
      "State": "Rajasthan"
    },
    {
      "id": 511,
      "Name": "Dausa",
      "State": "Rajasthan"
    },
    {
      "id": 512,
      "Name": "Dholpur",
      "State": "Rajasthan"
    },
    {
      "id": 513,
      "Name": "Dungarpur",
      "State": "Rajasthan"
    },
    {
      "id": 514,
      "Name": "Ganganagar",
      "State": "Rajasthan"
    },
    {
      "id": 515,
      "Name": "Hanumangarh",
      "State": "Rajasthan"
    },
    {
      "id": 516,
      "Name": "Jaipur",
      "State": "Rajasthan"
    },
    {
      "id": 517,
      "Name": "Jaisalmer",
      "State": "Rajasthan"
    },
    {
      "id": 518,
      "Name": "Jalore",
      "State": "Rajasthan"
    },
    {
      "id": 519,
      "Name": "Jhalawar",
      "State": "Rajasthan"
    },
    {
      "id": 520,
      "Name": "Jhunjhunu",
      "State": "Rajasthan"
    },
    {
      "id": 521,
      "Name": "Jodhpur",
      "State": "Rajasthan"
    },
    {
      "id": 522,
      "Name": "Karauli",
      "State": "Rajasthan"
    },
    {
      "id": 523,
      "Name": "Kota",
      "State": "Rajasthan"
    },
    {
      "id": 524,
      "Name": "Nagaur",
      "State": "Rajasthan"
    },
    {
      "id": 525,
      "Name": "Pali",
      "State": "Rajasthan"
    },
    {
      "id": 526,
      "Name": "Pratapgarh",
      "State": "Rajasthan"
    },
    {
      "id": 527,
      "Name": "Rajsamand",
      "State": "Rajasthan"
    },
    {
      "id": 528,
      "Name": "Sawai Madhopur",
      "State": "Rajasthan"
    },
    {
      "id": 529,
      "Name": "Sikar",
      "State": "Rajasthan"
    },
    {
      "id": 530,
      "Name": "Sirohi",
      "State": "Rajasthan"
    },
    {
      "id": 531,
      "Name": "Tonk",
      "State": "Rajasthan"
    },
    {
      "id": 532,
      "Name": "Udaipur",
      "State": "Rajasthan"
    },
    {
      "id": 533,
      "Name": "East Sikkim",
      "State": "Sikkim"
    },
    {
      "id": 534,
      "Name": "North Sikkim",
      "State": "Sikkim"
    },
    {
      "id": 535,
      "Name": "South Sikkim",
      "State": "Sikkim"
    },
    {
      "id": 536,
      "Name": "West Sikkim",
      "State": "Sikkim"
    },
    {
      "id": 537,
      "Name": "Ariyalur",
      "State": "Tamil Nadu"
    },
    {
      "id": 538,
      "Name": "Chennai",
      "State": "Tamil Nadu"
    },
    {
      "id": 539,
      "Name": "Coimbatore",
      "State": "Tamil Nadu"
    },
    {
      "id": 540,
      "Name": "Cuddalore",
      "State": "Tamil Nadu"
    },
    {
      "id": 541,
      "Name": "Dharmapuri",
      "State": "Tamil Nadu"
    },
    {
      "id": 542,
      "Name": "Dindigul",
      "State": "Tamil Nadu"
    },
    {
      "id": 543,
      "Name": "Erode",
      "State": "Tamil Nadu"
    },
    {
      "id": 544,
      "Name": "Kanchipuram",
      "State": "Tamil Nadu"
    },
    {
      "id": 545,
      "Name": "Kanyakumari",
      "State": "Tamil Nadu"
    },
    {
      "id": 546,
      "Name": "Karur",
      "State": "Tamil Nadu"
    },
    {
      "id": 547,
      "Name": "Krishnagiri",
      "State": "Tamil Nadu"
    },
    {
      "id": 548,
      "Name": "Madurai",
      "State": "Tamil Nadu"
    },
    {
      "id": 549,
      "Name": "Nagapattinam",
      "State": "Tamil Nadu"
    },
    {
      "id": 550,
      "Name": "Namakkal",
      "State": "Tamil Nadu"
    },
    {
      "id": 551,
      "Name": "Nilgiris",
      "State": "Tamil Nadu"
    },
    {
      "id": 552,
      "Name": "Perambalur",
      "State": "Tamil Nadu"
    },
    {
      "id": 553,
      "Name": "Pudukkottai",
      "State": "Tamil Nadu"
    },
    {
      "id": 554,
      "Name": "Ramanathapuram",
      "State": "Tamil Nadu"
    },
    {
      "id": 555,
      "Name": "Salem",
      "State": "Tamil Nadu"
    },
    {
      "id": 556,
      "Name": "Sivaganga",
      "State": "Tamil Nadu"
    },
    {
      "id": 557,
      "Name": "Thanjavur",
      "State": "Tamil Nadu"
    },
    {
      "id": 558,
      "Name": "Theni",
      "State": "Tamil Nadu"
    },
    {
      "id": 559,
      "Name": "Thoothukudi",
      "State": "Tamil Nadu"
    },
    {
      "id": 560,
      "Name": "Tiruchirappalli",
      "State": "Tamil Nadu"
    },
    {
      "id": 561,
      "Name": "Tirunelveli",
      "State": "Tamil Nadu"
    },
    {
      "id": 562,
      "Name": "Tiruppur",
      "State": "Tamil Nadu"
    },
    {
      "id": 563,
      "Name": "Tiruvallur",
      "State": "Tamil Nadu"
    },
    {
      "id": 564,
      "Name": "Tiruvannamalai",
      "State": "Tamil Nadu"
    },
    {
      "id": 565,
      "Name": "Tiruvarur",
      "State": "Tamil Nadu"
    },
    {
      "id": 566,
      "Name": "Vellore",
      "State": "Tamil Nadu"
    },
    {
      "id": 567,
      "Name": "Viluppuram",
      "State": "Tamil Nadu"
    },
    {
      "id": 568,
      "Name": "Virudhunagar",
      "State": "Tamil Nadu"
    },
    {
      "id": 569,
      "Name": "Adilabad",
      "State": "Telangana"
    },
    {
      "id": 570,
      "Name": "Bhadradri Kothagudem",
      "State": "Telangana"
    },
    {
      "id": 571,
      "Name": "Hyderabad",
      "State": "Telangana"
    },
    {
      "id": 572,
      "Name": "Jagtial",
      "State": "Telangana"
    },
    {
      "id": 573,
      "Name": "Jangaon",
      "State": "Telangana"
    },
    {
      "id": 574,
      "Name": "Jayashankar",
      "State": "Telangana"
    },
    {
      "id": 575,
      "Name": "Jogulamba",
      "State": "Telangana"
    },
    {
      "id": 576,
      "Name": "Kamareddy",
      "State": "Telangana"
    },
    {
      "id": 577,
      "Name": "Karimnagar",
      "State": "Telangana"
    },
    {
      "id": 578,
      "Name": "Khammam",
      "State": "Telangana"
    },
    {
      "id": 579,
      "Name": "Komaram Bheem",
      "State": "Telangana"
    },
    {
      "id": 580,
      "Name": "Mahabubabad",
      "State": "Telangana"
    },
    {
      "id": 581,
      "Name": "Mahbubnagar",
      "State": "Telangana"
    },
    {
      "id": 582,
      "Name": "Mancherial",
      "State": "Telangana"
    },
    {
      "id": 583,
      "Name": "Medak",
      "State": "Telangana"
    },
    {
      "id": 584,
      "Name": "Medchal",
      "State": "Telangana"
    },
    {
      "id": 585,
      "Name": "Nagarkurnool",
      "State": "Telangana"
    },
    {
      "id": 586,
      "Name": "Nalgonda",
      "State": "Telangana"
    },
    {
      "id": 587,
      "Name": "Nirmal",
      "State": "Telangana"
    },
    {
      "id": 588,
      "Name": "Nizamabad",
      "State": "Telangana"
    },
    {
      "id": 589,
      "Name": "Peddapalli",
      "State": "Telangana"
    },
    {
      "id": 590,
      "Name": "Rajanna Sircilla",
      "State": "Telangana"
    },
    {
      "id": 591,
      "Name": "Ranga Reddy",
      "State": "Telangana"
    },
    {
      "id": 592,
      "Name": "Sangareddy",
      "State": "Telangana"
    },
    {
      "id": 593,
      "Name": "Siddipet",
      "State": "Telangana"
    },
    {
      "id": 594,
      "Name": "Suryapet",
      "State": "Telangana"
    },
    {
      "id": 595,
      "Name": "Vikarabad",
      "State": "Telangana"
    },
    {
      "id": 596,
      "Name": "Wanaparthy",
      "State": "Telangana"
    },
    {
      "id": 597,
      "Name": "Warangal Rural",
      "State": "Telangana"
    },
    {
      "id": 598,
      "Name": "Warangal Urban",
      "State": "Telangana"
    },
    {
      "id": 599,
      "Name": "Yadadri Bhuvanagiri",
      "State": "Telangana"
    },
    {
      "id": 600,
      "Name": "Dhalai",
      "State": "Tripura"
    },
    {
      "id": 601,
      "Name": "Gomati",
      "State": "Tripura"
    },
    {
      "id": 602,
      "Name": "Khowai",
      "State": "Tripura"
    },
    {
      "id": 603,
      "Name": "North Tripura",
      "State": "Tripura"
    },
    {
      "id": 604,
      "Name": "Sepahijala",
      "State": "Tripura"
    },
    {
      "id": 605,
      "Name": "South Tripura",
      "State": "Tripura"
    },
    {
      "id": 606,
      "Name": "Unakoti",
      "State": "Tripura"
    },
    {
      "id": 607,
      "Name": "West Tripura",
      "State": "Tripura"
    },
    {
      "id": 608,
      "Name": "Agra",
      "State": "Uttar Pradesh"
    },
    {
      "id": 609,
      "Name": "Aligarh",
      "State": "Uttar Pradesh"
    },
    {
      "id": 610,
      "Name": "Allahabad",
      "State": "Uttar Pradesh"
    },
    {
      "id": 611,
      "Name": "Ambedkar Nagar",
      "State": "Uttar Pradesh"
    },
    {
      "id": 612,
      "Name": "Amethi*",
      "State": "Uttar Pradesh"
    },
    {
      "id": 613,
      "Name": "Amroha*",
      "State": "Uttar Pradesh"
    },
    {
      "id": 614,
      "Name": "Auraiya",
      "State": "Uttar Pradesh"
    },
    {
      "id": 615,
      "Name": "Azamgarh",
      "State": "Uttar Pradesh"
    },
    {
      "id": 616,
      "Name": "Baghpat",
      "State": "Uttar Pradesh"
    },
    {
      "id": 617,
      "Name": "Bahraich",
      "State": "Uttar Pradesh"
    },
    {
      "id": 618,
      "Name": "Ballia",
      "State": "Uttar Pradesh"
    },
    {
      "id": 619,
      "Name": "Balrampur",
      "State": "Uttar Pradesh"
    },
    {
      "id": 620,
      "Name": "Banda",
      "State": "Uttar Pradesh"
    },
    {
      "id": 621,
      "Name": "Barabanki",
      "State": "Uttar Pradesh"
    },
    {
      "id": 622,
      "Name": "Bareilly",
      "State": "Uttar Pradesh"
    },
    {
      "id": 623,
      "Name": "Basti",
      "State": "Uttar Pradesh"
    },
    {
      "id": 624,
      "Name": "Bhadohi",
      "State": "Uttar Pradesh"
    },
    {
      "id": 625,
      "Name": "Bijnor",
      "State": "Uttar Pradesh"
    },
    {
      "id": 626,
      "Name": "Budaun",
      "State": "Uttar Pradesh"
    },
    {
      "id": 627,
      "Name": "Bulandshahr",
      "State": "Uttar Pradesh"
    },
    {
      "id": 628,
      "Name": "Chandauli",
      "State": "Uttar Pradesh"
    },
    {
      "id": 629,
      "Name": "Chitrakoot",
      "State": "Uttar Pradesh"
    },
    {
      "id": 630,
      "Name": "Deoria",
      "State": "Uttar Pradesh"
    },
    {
      "id": 631,
      "Name": "Etah",
      "State": "Uttar Pradesh"
    },
    {
      "id": 632,
      "Name": "Etawah",
      "State": "Uttar Pradesh"
    },
    {
      "id": 633,
      "Name": "Faizabad",
      "State": "Uttar Pradesh"
    },
    {
      "id": 634,
      "Name": "Farrukhabad",
      "State": "Uttar Pradesh"
    },
    {
      "id": 635,
      "Name": "Fatehpur",
      "State": "Uttar Pradesh"
    },
    {
      "id": 636,
      "Name": "Firozabad",
      "State": "Uttar Pradesh"
    },
    {
      "id": 637,
      "Name": "Gautam Buddha Nagar",
      "State": "Uttar Pradesh"
    },
    {
      "id": 638,
      "Name": "Ghaziabad",
      "State": "Uttar Pradesh"
    },
    {
      "id": 639,
      "Name": "Ghazipur",
      "State": "Uttar Pradesh"
    },
    {
      "id": 640,
      "Name": "Gonda",
      "State": "Uttar Pradesh"
    },
    {
      "id": 641,
      "Name": "Gorakhpur",
      "State": "Uttar Pradesh"
    },
    {
      "id": 642,
      "Name": "Hamirpur",
      "State": "Uttar Pradesh"
    },
    {
      "id": 643,
      "Name": "Hapur*",
      "State": "Uttar Pradesh"
    },
    {
      "id": 644,
      "Name": "Hardoi",
      "State": "Uttar Pradesh"
    },
    {
      "id": 645,
      "Name": "Hathras*",
      "State": "Uttar Pradesh"
    },
    {
      "id": 646,
      "Name": "Jalaun",
      "State": "Uttar Pradesh"
    },
    {
      "id": 647,
      "Name": "Jaunpur",
      "State": "Uttar Pradesh"
    },
    {
      "id": 648,
      "Name": "Jhansi",
      "State": "Uttar Pradesh"
    },
    {
      "id": 649,
      "Name": "Kannauj",
      "State": "Uttar Pradesh"
    },
    {
      "id": 650,
      "Name": "Kanpur Dehat*",
      "State": "Uttar Pradesh"
    },
    {
      "id": 651,
      "Name": "Kanpur Nagar",
      "State": "Uttar Pradesh"
    },
    {
      "id": 652,
      "Name": "Kasganj*",
      "State": "Uttar Pradesh"
    },
    {
      "id": 653,
      "Name": "Kaushambi",
      "State": "Uttar Pradesh"
    },
    {
      "id": 654,
      "Name": "Kheri",
      "State": "Uttar Pradesh"
    },
    {
      "id": 655,
      "Name": "Kushinagar",
      "State": "Uttar Pradesh"
    },
    {
      "id": 656,
      "Name": "Lalitpur",
      "State": "Uttar Pradesh"
    },
    {
      "id": 657,
      "Name": "Lucknow",
      "State": "Uttar Pradesh"
    },
    {
      "id": 658,
      "Name": "Maharajganj",
      "State": "Uttar Pradesh"
    },
    {
      "id": 659,
      "Name": "Mahoba",
      "State": "Uttar Pradesh"
    },
    {
      "id": 660,
      "Name": "Mainpuri",
      "State": "Uttar Pradesh"
    },
    {
      "id": 661,
      "Name": "Mathura",
      "State": "Uttar Pradesh"
    },
    {
      "id": 662,
      "Name": "Mau",
      "State": "Uttar Pradesh"
    },
    {
      "id": 663,
      "Name": "Meerut",
      "State": "Uttar Pradesh"
    },
    {
      "id": 664,
      "Name": "Mirzapur",
      "State": "Uttar Pradesh"
    },
    {
      "id": 665,
      "Name": "Moradabad",
      "State": "Uttar Pradesh"
    },
    {
      "id": 666,
      "Name": "Muzaffarnagar",
      "State": "Uttar Pradesh"
    },
    {
      "id": 667,
      "Name": "Pilibhit",
      "State": "Uttar Pradesh"
    },
    {
      "id": 668,
      "Name": "Pratapgarh",
      "State": "Uttar Pradesh"
    },
    {
      "id": 669,
      "Name": "Raebareli",
      "State": "Uttar Pradesh"
    },
    {
      "id": 670,
      "Name": "Rampur",
      "State": "Uttar Pradesh"
    },
    {
      "id": 671,
      "Name": "Saharanpur",
      "State": "Uttar Pradesh"
    },
    {
      "id": 672,
      "Name": "Sambhal*",
      "State": "Uttar Pradesh"
    },
    {
      "id": 673,
      "Name": "Sant Kabir Nagar",
      "State": "Uttar Pradesh"
    },
    {
      "id": 674,
      "Name": "Shahjahanpur",
      "State": "Uttar Pradesh"
    },
    {
      "id": 675,
      "Name": "Shamli*",
      "State": "Uttar Pradesh"
    },
    {
      "id": 676,
      "Name": "Shravasti",
      "State": "Uttar Pradesh"
    },
    {
      "id": 677,
      "Name": "Siddharthnagar",
      "State": "Uttar Pradesh"
    },
    {
      "id": 678,
      "Name": "Sitapur",
      "State": "Uttar Pradesh"
    },
    {
      "id": 679,
      "Name": "Sonbhadra",
      "State": "Uttar Pradesh"
    },
    {
      "id": 680,
      "Name": "Sultanpur",
      "State": "Uttar Pradesh"
    },
    {
      "id": 681,
      "Name": "Unnao",
      "State": "Uttar Pradesh"
    },
    {
      "id": 682,
      "Name": "Varanasi",
      "State": "Uttar Pradesh"
    },
    {
      "id": 683,
      "Name": "Almora",
      "State": "Uttarakhand"
    },
    {
      "id": 684,
      "Name": "Bageshwar",
      "State": "Uttarakhand"
    },
    {
      "id": 685,
      "Name": "Chamoli",
      "State": "Uttarakhand"
    },
    {
      "id": 686,
      "Name": "Champawat",
      "State": "Uttarakhand"
    },
    {
      "id": 687,
      "Name": "Dehradun",
      "State": "Uttarakhand"
    },
    {
      "id": 688,
      "Name": "Haridwar",
      "State": "Uttarakhand"
    },
    {
      "id": 689,
      "Name": "Nainital",
      "State": "Uttarakhand"
    },
    {
      "id": 690,
      "Name": "Pauri",
      "State": "Uttarakhand"
    },
    {
      "id": 691,
      "Name": "Pithoragarh",
      "State": "Uttarakhand"
    },
    {
      "id": 692,
      "Name": "Rudraprayag",
      "State": "Uttarakhand"
    },
    {
      "id": 693,
      "Name": "Tehri",
      "State": "Uttarakhand"
    },
    {
      "id": 694,
      "Name": "Udham Singh Nagar",
      "State": "Uttarakhand"
    },
    {
      "id": 695,
      "Name": "Uttarkashi",
      "State": "Uttarakhand"
    },
    {
      "id": 696,
      "Name": "Alipurduar",
      "State": "West Bengal"
    },
    {
      "id": 697,
      "Name": "Bankura",
      "State": "West Bengal"
    },
    {
      "id": 698,
      "Name": "Birbhum",
      "State": "West Bengal"
    },
    {
      "id": 699,
      "Name": "Cooch Behar",
      "State": "West Bengal"
    },
    {
      "id": 700,
      "Name": "Dakshin Dinajpur",
      "State": "West Bengal"
    },
    {
      "id": 701,
      "Name": "Darjeeling",
      "State": "West Bengal"
    },
    {
      "id": 702,
      "Name": "Hooghly",
      "State": "West Bengal"
    },
    {
      "id": 703,
      "Name": "Howrah",
      "State": "West Bengal"
    },
    {
      "id": 704,
      "Name": "Jalpaiguri",
      "State": "West Bengal"
    },
    {
      "id": 705,
      "Name": "Jhargram",
      "State": "West Bengal"
    },
    {
      "id": 706,
      "Name": "Kalimpong",
      "State": "West Bengal"
    },
    {
      "id": 707,
      "Name": "Kolkata",
      "State": "West Bengal"
    },
    {
      "id": 708,
      "Name": "Malda",
      "State": "West Bengal"
    },
    {
      "id": 709,
      "Name": "Murshidabad",
      "State": "West Bengal"
    },
    {
      "id": 710,
      "Name": "Nadia",
      "State": "West Bengal"
    },
    {
      "id": 711,
      "Name": "North 24 Parganas",
      "State": "West Bengal"
    },
    {
      "id": 712,
      "Name": "Paschim Bardhaman",
      "State": "West Bengal"
    },
    {
      "id": 713,
      "Name": "Paschim Medinipur",
      "State": "West Bengal"
    },
    {
      "id": 714,
      "Name": "Purba Bardhaman",
      "State": "West Bengal"
    },
    {
      "id": 715,
      "Name": "Purba Medinipur",
      "State": "West Bengal"
    },
    {
      "id": 716,
      "Name": "Purulia",
      "State": "West Bengal"
    },
    {
      "id": 717,
      "Name": "South 24 Parganas",
      "State": "West Bengal"
    },
    {
      "id": 718,
      "Name": "Uttar Dinajpur",
      "State": "West Bengal"
    }
  ]
}